<?xml version="1.0"?>
<!DOCTYPE svg PUBLIC '-//W3C//DTD SVG 1.0//EN'
          'http://www.w3.org/TR/2001/REC-SVG-20010904/DTD/svg10.dtd'>
<svg xmlns:xlink="http://www.w3.org/1999/xlink" style="fill-opacity:1; color-rendering:auto; color-interpolation:auto; stroke:black; text-rendering:auto; stroke-linecap:square; stroke-miterlimit:10; stroke-opacity:1; shape-rendering:auto; fill:black; stroke-dasharray:none; font-weight:normal; stroke-width:1; font-family:'Dialog'; font-style:normal; stroke-linejoin:miter; font-size:12px; stroke-dashoffset:0; image-rendering:auto;" width="1319" height="661" xmlns="http://www.w3.org/2000/svg"
><!--Generated by the Batik Graphics2D SVG Generator--><defs id="genericDefs"
  /><g
  ><defs id="defs1"
    ><clipPath clipPathUnits="userSpaceOnUse" id="clipPath1"
      ><path d="M0 0 L1319 0 L1319 661 L0 661 L0 0 Z"
      /></clipPath
      ><font horiz-adv-x="60.009766" id="font1"
      ><font-face ascent="92.822266" descent="23.583984" units-per-em="100" style="font-style:normal; font-family:SansSerif; font-weight:normal;"
        /><missing-glyph horiz-adv-x="60.009766" d="M4.9844 -17.6719 L4.9844 70.5156 L54.9844 70.5156 L54.9844 -17.6719 L4.9844 -17.6719 ZM10.5938 -12.1094 L49.4219 -12.1094 L49.4219 64.8906 L10.5938 64.8906 L10.5938 -12.1094 Z"
        /><glyph unicode="0" horiz-adv-x="63.623047" d="M31.7812 66.4062 Q24.1719 66.4062 20.3359 58.9141 Q16.5 51.4219 16.5 36.375 Q16.5 21.3906 20.3359 13.8906 Q24.1719 6.3906 31.7812 6.3906 Q39.4531 6.3906 43.2891 13.8906 Q47.125 21.3906 47.125 36.375 Q47.125 51.4219 43.2891 58.9141 Q39.4531 66.4062 31.7812 66.4062 ZM31.7812 74.2188 Q44.0469 74.2188 50.5156 64.5234 Q56.9844 54.8281 56.9844 36.375 Q56.9844 17.9688 50.5156 8.2734 Q44.0469 -1.4219 31.7812 -1.4219 Q19.5312 -1.4219 13.0625 8.2734 Q6.5938 17.9688 6.5938 36.375 Q6.5938 54.8281 13.0625 64.5234 Q19.5312 74.2188 31.7812 74.2188 Z"
        /><glyph unicode="5" horiz-adv-x="63.623047" d="M10.7969 72.9062 L49.5156 72.9062 L49.5156 64.5938 L19.8281 64.5938 L19.8281 46.7344 Q21.9688 47.4688 24.1172 47.8281 Q26.2656 48.1875 28.4219 48.1875 Q40.625 48.1875 47.7578 41.5 Q54.8906 34.8125 54.8906 23.3906 Q54.8906 11.625 47.5625 5.1016 Q40.2344 -1.4219 26.9062 -1.4219 Q22.3125 -1.4219 17.5547 -0.6406 Q12.7969 0.1406 7.7188 1.7031 L7.7188 11.625 Q12.1094 9.2344 16.7969 8.0625 Q21.4844 6.8906 26.7031 6.8906 Q35.1562 6.8906 40.0859 11.3281 Q45.0156 15.7656 45.0156 23.3906 Q45.0156 31 40.0859 35.4453 Q35.1562 39.8906 26.7031 39.8906 Q22.75 39.8906 18.8203 39.0156 Q14.8906 38.1406 10.7969 36.2812 L10.7969 72.9062 Z"
        /><glyph unicode="1" horiz-adv-x="63.623047" d="M12.4062 8.2969 L28.5156 8.2969 L28.5156 63.9219 L10.9844 60.4062 L10.9844 69.3906 L28.4219 72.9062 L38.2812 72.9062 L38.2812 8.2969 L54.3906 8.2969 L54.3906 0 L12.4062 0 L12.4062 8.2969 Z"
        /><glyph unicode="2" horiz-adv-x="63.623047" d="M19.1875 8.2969 L53.6094 8.2969 L53.6094 0 L7.3281 0 L7.3281 8.2969 Q12.9375 14.1094 22.6328 23.8984 Q32.3281 33.6875 34.8125 36.5312 Q39.5469 41.8438 41.4297 45.5312 Q43.3125 49.2188 43.3125 52.7812 Q43.3125 58.5938 39.2344 62.2578 Q35.1562 65.9219 28.6094 65.9219 Q23.9688 65.9219 18.8203 64.3125 Q13.6719 62.7031 7.8125 59.4219 L7.8125 69.3906 Q13.7656 71.7812 18.9453 73 Q24.125 74.2188 28.4219 74.2188 Q39.75 74.2188 46.4844 68.5547 Q53.2188 62.8906 53.2188 53.4219 Q53.2188 48.9219 51.5391 44.8984 Q49.8594 40.875 45.4062 35.4062 Q44.1875 33.9844 37.6484 27.2188 Q31.1094 20.4531 19.1875 8.2969 Z"
        /><glyph unicode="3" horiz-adv-x="63.623047" d="M40.5781 39.3125 Q47.6562 37.7969 51.6328 33.0078 Q55.6094 28.2188 55.6094 21.1875 Q55.6094 10.4062 48.1875 4.4922 Q40.7656 -1.4219 27.0938 -1.4219 Q22.5156 -1.4219 17.6562 -0.5156 Q12.7969 0.3906 7.625 2.2031 L7.625 11.7188 Q11.7188 9.3281 16.6016 8.1094 Q21.4844 6.8906 26.8125 6.8906 Q36.0781 6.8906 40.9375 10.5469 Q45.7969 14.2031 45.7969 21.1875 Q45.7969 27.6406 41.2812 31.2734 Q36.7656 34.9062 28.7188 34.9062 L20.2188 34.9062 L20.2188 43.0156 L29.1094 43.0156 Q36.375 43.0156 40.2344 45.9219 Q44.0938 48.8281 44.0938 54.2969 Q44.0938 59.9062 40.1172 62.9141 Q36.1406 65.9219 28.7188 65.9219 Q24.6562 65.9219 20.0156 65.0391 Q15.375 64.1562 9.8125 62.3125 L9.8125 71.0938 Q15.4375 72.6562 20.3438 73.4375 Q25.25 74.2188 29.5938 74.2188 Q40.8281 74.2188 47.3672 69.1172 Q53.9062 64.0156 53.9062 55.3281 Q53.9062 49.2656 50.4375 45.0938 Q46.9688 40.9219 40.5781 39.3125 Z"
        /><glyph unicode=")" horiz-adv-x="39.01367" d="M8.0156 75.875 L15.8281 75.875 Q23.1406 64.3594 26.7812 53.3203 Q30.4219 42.2812 30.4219 31.3906 Q30.4219 20.4531 26.7812 9.375 Q23.1406 -1.7031 15.8281 -13.1875 L8.0156 -13.1875 Q14.5 -2 17.7031 9.0625 Q20.9062 20.125 20.9062 31.3906 Q20.9062 42.6719 17.7031 53.6641 Q14.5 64.6562 8.0156 75.875 Z"
        /><glyph unicode="d" horiz-adv-x="63.476562" d="M45.4062 46.3906 L45.4062 75.9844 L54.3906 75.9844 L54.3906 0 L45.4062 0 L45.4062 8.2031 Q42.5781 3.3281 38.2578 0.9531 Q33.9375 -1.4219 27.875 -1.4219 Q17.9688 -1.4219 11.7422 6.4922 Q5.5156 14.4062 5.5156 27.2969 Q5.5156 40.1875 11.7422 48.0938 Q17.9688 56 27.875 56 Q33.9375 56 38.2578 53.6328 Q42.5781 51.2656 45.4062 46.3906 ZM14.7969 27.2969 Q14.7969 17.3906 18.875 11.75 Q22.9531 6.1094 30.0781 6.1094 Q37.2031 6.1094 41.3047 11.75 Q45.4062 17.3906 45.4062 27.2969 Q45.4062 37.2031 41.3047 42.8438 Q37.2031 48.4844 30.0781 48.4844 Q22.9531 48.4844 18.875 42.8438 Q14.7969 37.2031 14.7969 27.2969 Z"
        /><glyph unicode="n" horiz-adv-x="63.378906" d="M54.8906 33.0156 L54.8906 0 L45.9062 0 L45.9062 32.7188 Q45.9062 40.4844 42.875 44.3359 Q39.8438 48.1875 33.7969 48.1875 Q26.5156 48.1875 22.3125 43.5547 Q18.1094 38.9219 18.1094 30.9062 L18.1094 0 L9.0781 0 L9.0781 54.6875 L18.1094 54.6875 L18.1094 46.1875 Q21.3438 51.125 25.7109 53.5625 Q30.0781 56 35.7969 56 Q45.2188 56 50.0547 50.1719 Q54.8906 44.3438 54.8906 33.0156 Z"
        /><glyph unicode="o" horiz-adv-x="61.18164" d="M30.6094 48.3906 Q23.3906 48.3906 19.1875 42.75 Q14.9844 37.1094 14.9844 27.2969 Q14.9844 17.4844 19.1641 11.8438 Q23.3438 6.2031 30.6094 6.2031 Q37.7969 6.2031 41.9922 11.8672 Q46.1875 17.5312 46.1875 27.2969 Q46.1875 37.0156 41.9922 42.7031 Q37.7969 48.3906 30.6094 48.3906 ZM30.6094 56 Q42.3281 56 49.0234 48.3828 Q55.7188 40.7656 55.7188 27.2969 Q55.7188 13.875 49.0234 6.2266 Q42.3281 -1.4219 30.6094 -1.4219 Q18.8438 -1.4219 12.1797 6.2266 Q5.5156 13.875 5.5156 27.2969 Q5.5156 40.7656 12.1797 48.3828 Q18.8438 56 30.6094 56 Z"
        /><glyph unicode="c" horiz-adv-x="54.98047" d="M48.7812 52.5938 L48.7812 44.1875 Q44.9688 46.2969 41.1406 47.3438 Q37.3125 48.3906 33.4062 48.3906 Q24.6562 48.3906 19.8203 42.8516 Q14.9844 37.3125 14.9844 27.2969 Q14.9844 17.2812 19.8203 11.7422 Q24.6562 6.2031 33.4062 6.2031 Q37.3125 6.2031 41.1406 7.25 Q44.9688 8.2969 48.7812 10.4062 L48.7812 2.0938 Q45.0156 0.3438 40.9922 -0.5391 Q36.9688 -1.4219 32.4219 -1.4219 Q20.0625 -1.4219 12.7891 6.3438 Q5.5156 14.1094 5.5156 27.2969 Q5.5156 40.6719 12.8672 48.3359 Q20.2188 56 33.0156 56 Q37.1562 56 41.1094 55.1484 Q45.0625 54.2969 48.7812 52.5938 Z"
        /><glyph unicode="s" horiz-adv-x="52.09961" d="M44.2812 53.0781 L44.2812 44.5781 Q40.4844 46.5312 36.3828 47.5078 Q32.2812 48.4844 27.875 48.4844 Q21.1875 48.4844 17.8438 46.4375 Q14.5 44.3906 14.5 40.2812 Q14.5 37.1562 16.8906 35.375 Q19.2812 33.5938 26.5156 31.9844 L29.5938 31.2969 Q39.1562 29.25 43.1875 25.5156 Q47.2188 21.7812 47.2188 15.0938 Q47.2188 7.4688 41.1875 3.0234 Q35.1562 -1.4219 24.6094 -1.4219 Q20.2188 -1.4219 15.4531 -0.5625 Q10.6875 0.2969 5.4219 2 L5.4219 11.2812 Q10.4062 8.6875 15.2344 7.3984 Q20.0625 6.1094 24.8125 6.1094 Q31.1562 6.1094 34.5703 8.2812 Q37.9844 10.4531 37.9844 14.4062 Q37.9844 18.0625 35.5234 20.0156 Q33.0625 21.9688 24.7031 23.7812 L21.5781 24.5156 Q13.2344 26.2656 9.5234 29.9062 Q5.8125 33.5469 5.8125 39.8906 Q5.8125 47.6094 11.2812 51.8047 Q16.75 56 26.8125 56 Q31.7812 56 36.1797 55.2734 Q40.5781 54.5469 44.2812 53.0781 Z"
        /><glyph unicode="(" horiz-adv-x="39.01367" d="M31 75.875 Q24.4688 64.6562 21.2891 53.6641 Q18.1094 42.6719 18.1094 31.3906 Q18.1094 20.125 21.3125 9.0625 Q24.5156 -2 31 -13.1875 L23.1875 -13.1875 Q15.875 -1.7031 12.2344 9.375 Q8.5938 20.4531 8.5938 31.3906 Q8.5938 42.2812 12.2109 53.3203 Q15.8281 64.3594 23.1875 75.875 L31 75.875 Z"
        /><glyph unicode=" " horiz-adv-x="31.78711" d=""
        /><glyph unicode="e" horiz-adv-x="61.523438" d="M56.2031 29.5938 L56.2031 25.2031 L14.8906 25.2031 Q15.4844 15.9219 20.4844 11.0625 Q25.4844 6.2031 34.4219 6.2031 Q39.5938 6.2031 44.4531 7.4688 Q49.3125 8.7344 54.1094 11.2812 L54.1094 2.7812 Q49.2656 0.7344 44.1875 -0.3438 Q39.1094 -1.4219 33.8906 -1.4219 Q20.7969 -1.4219 13.1562 6.1953 Q5.5156 13.8125 5.5156 26.8125 Q5.5156 40.2344 12.7656 48.1172 Q20.0156 56 32.3281 56 Q43.3594 56 49.7812 48.8984 Q56.2031 41.7969 56.2031 29.5938 ZM47.2188 32.2344 Q47.125 39.5938 43.0938 43.9922 Q39.0625 48.3906 32.4219 48.3906 Q24.9062 48.3906 20.3906 44.1406 Q15.875 39.8906 15.1875 32.1719 L47.2188 32.2344 Z"
        /><glyph unicode="m" horiz-adv-x="97.41211" d="M52 44.1875 Q55.375 50.25 60.0625 53.125 Q64.75 56 71.0938 56 Q79.6406 56 84.2812 50.0234 Q88.9219 44.0469 88.9219 33.0156 L88.9219 0 L79.8906 0 L79.8906 32.7188 Q79.8906 40.5781 77.1016 44.3828 Q74.3125 48.1875 68.6094 48.1875 Q61.625 48.1875 57.5703 43.5547 Q53.5156 38.9219 53.5156 30.9062 L53.5156 0 L44.4844 0 L44.4844 32.7188 Q44.4844 40.625 41.7031 44.4062 Q38.9219 48.1875 33.1094 48.1875 Q26.2188 48.1875 22.1641 43.5312 Q18.1094 38.875 18.1094 30.9062 L18.1094 0 L9.0781 0 L9.0781 54.6875 L18.1094 54.6875 L18.1094 46.1875 Q21.1875 51.2188 25.4844 53.6094 Q29.7812 56 35.6875 56 Q41.6562 56 45.8281 52.9766 Q50 49.9531 52 44.1875 Z"
        /><glyph unicode="i" horiz-adv-x="27.783203" d="M9.4219 54.6875 L18.4062 54.6875 L18.4062 0 L9.4219 0 L9.4219 54.6875 ZM9.4219 75.9844 L18.4062 75.9844 L18.4062 64.5938 L9.4219 64.5938 L9.4219 75.9844 Z"
        /><glyph unicode="T" horiz-adv-x="61.083984" d="M-0.2969 72.9062 L61.375 72.9062 L61.375 64.5938 L35.5 64.5938 L35.5 0 L25.5938 0 L25.5938 64.5938 L-0.2969 64.5938 L-0.2969 72.9062 Z"
        /><glyph unicode="-" horiz-adv-x="36.083984" d="M4.8906 31.3906 L31.2031 31.3906 L31.2031 23.3906 L4.8906 23.3906 L4.8906 31.3906 Z"
        /><glyph unicode="t" horiz-adv-x="39.208984" d="M18.3125 70.2188 L18.3125 54.6875 L36.8125 54.6875 L36.8125 47.7031 L18.3125 47.7031 L18.3125 18.0156 Q18.3125 11.3281 20.1406 9.4219 Q21.9688 7.5156 27.5938 7.5156 L36.8125 7.5156 L36.8125 0 L27.5938 0 Q17.1875 0 13.2344 3.8828 Q9.2812 7.7656 9.2812 18.0156 L9.2812 47.7031 L2.6875 47.7031 L2.6875 54.6875 L9.2812 54.6875 L9.2812 70.2188 L18.3125 70.2188 Z"
        /><glyph unicode="a" horiz-adv-x="61.279297" d="M34.2812 27.4844 Q23.3906 27.4844 19.1875 25 Q14.9844 22.5156 14.9844 16.5 Q14.9844 11.7188 18.1406 8.9141 Q21.2969 6.1094 26.7031 6.1094 Q34.1875 6.1094 38.7031 11.4062 Q43.2188 16.7031 43.2188 25.4844 L43.2188 27.4844 L34.2812 27.4844 ZM52.2031 31.2031 L52.2031 0 L43.2188 0 L43.2188 8.2969 Q40.1406 3.3281 35.5469 0.9531 Q30.9531 -1.4219 24.3125 -1.4219 Q15.9219 -1.4219 10.9609 3.2969 Q6 8.0156 6 15.9219 Q6 25.1406 12.1797 29.8281 Q18.3594 34.5156 30.6094 34.5156 L43.2188 34.5156 L43.2188 35.4062 Q43.2188 41.6094 39.1406 45 Q35.0625 48.3906 27.6875 48.3906 Q23 48.3906 18.5547 47.2656 Q14.1094 46.1406 10.0156 43.8906 L10.0156 52.2031 Q14.9375 54.1094 19.5781 55.0547 Q24.2188 56 28.6094 56 Q40.4844 56 46.3438 49.8516 Q52.2031 43.7031 52.2031 31.2031 Z"
      /></font
      ><font horiz-adv-x="75.0" id="font2"
      ><font-face ascent="65.42969" descent="22.558594" units-per-em="100" style="font-style:normal; font-family:mwb_cmsy10; font-weight:normal;"
        /><missing-glyph horiz-adv-x="75.0" d="M12.5 0 L12.5 62.5 L62.5 62.5 L62.5 0 L12.5 0 ZM60.8906 1.6094 L60.8906 60.8906 L14.1094 60.8906 L14.1094 1.6094 L60.8906 1.6094 Z"
        /><glyph unicode="#" horiz-adv-x="77.68555" d="M14.7031 2.875 Q14.7031 3.6562 15.1875 4.2969 L35.9844 25 L15.1875 45.7969 Q14.7031 46.2969 14.7031 47.125 Q14.7031 47.8594 15.2891 48.4922 Q15.875 49.125 16.7031 49.125 Q17.3906 49.125 18.2188 48.4844 L38.9219 27.7812 L59.5156 48.4844 Q60.3594 49.125 60.9844 49.125 Q61.8125 49.125 62.3984 48.5391 Q62.9844 47.9531 62.9844 47.125 Q62.9844 46.2969 62.5 45.7969 L41.7031 25 L62.5 4.2969 Q62.9844 3.6562 62.9844 2.875 Q62.9844 2.0469 62.3984 1.4609 Q61.8125 0.875 60.9844 0.875 Q60.25 0.875 59.5156 1.6094 L38.9219 22.2188 L18.2188 1.6094 Q17.4844 0.875 16.7031 0.875 Q15.875 0.875 15.2891 1.5156 Q14.7031 2.1562 14.7031 2.875 Z"
      /></font
      ><font horiz-adv-x="60.009766" id="font3"
      ><font-face ascent="92.822266" descent="23.583984" units-per-em="100" style="font-style:normal; font-family:SansSerif; font-weight:bold;"
        /><missing-glyph horiz-adv-x="60.009766" d="M4.9844 -17.6719 L4.9844 70.5156 L54.9844 70.5156 L54.9844 -17.6719 L4.9844 -17.6719 ZM10.5938 -12.1094 L49.4219 -12.1094 L49.4219 64.8906 L10.5938 64.8906 L10.5938 -12.1094 Z"
        /><glyph unicode=":" horiz-adv-x="39.990234" d="M11.1875 54.6875 L28.8125 54.6875 L28.8125 35.7969 L11.1875 35.7969 L11.1875 54.6875 ZM11.1875 18.8906 L28.8125 18.8906 L28.8125 0 L11.1875 0 L11.1875 18.8906 Z"
        /><glyph unicode="t" horiz-adv-x="47.802734" d="M27.4844 70.2188 L27.4844 54.6875 L45.5156 54.6875 L45.5156 42.1875 L27.4844 42.1875 L27.4844 19 Q27.4844 15.1875 29 13.8438 Q30.5156 12.5 35.0156 12.5 L44 12.5 L44 0 L29 0 Q18.6562 0 14.3359 4.3203 Q10.0156 8.6406 10.0156 19 L10.0156 42.1875 L1.3125 42.1875 L1.3125 54.6875 L10.0156 54.6875 L10.0156 70.2188 L27.4844 70.2188 Z"
        /><glyph unicode="o" horiz-adv-x="68.70117" d="M34.4219 43.5 Q28.6094 43.5 25.5625 39.3281 Q22.5156 35.1562 22.5156 27.2969 Q22.5156 19.4375 25.5625 15.2578 Q28.6094 11.0781 34.4219 11.0781 Q40.1406 11.0781 43.1641 15.2578 Q46.1875 19.4375 46.1875 27.2969 Q46.1875 35.1562 43.1641 39.3281 Q40.1406 43.5 34.4219 43.5 ZM34.4219 56 Q48.5312 56 56.4688 48.3828 Q64.4062 40.7656 64.4062 27.2969 Q64.4062 13.8125 56.4688 6.1953 Q48.5312 -1.4219 34.4219 -1.4219 Q20.2656 -1.4219 12.2812 6.1953 Q4.2969 13.8125 4.2969 27.2969 Q4.2969 40.7656 12.2812 48.3828 Q20.2656 56 34.4219 56 Z"
        /><glyph unicode="l" horiz-adv-x="34.277344" d="M8.4062 75.9844 L25.875 75.9844 L25.875 0 L8.4062 0 L8.4062 75.9844 Z"
        /><glyph unicode="P" horiz-adv-x="73.291016" d="M9.1875 72.9062 L40.375 72.9062 Q54.2969 72.9062 61.7422 66.7266 Q69.1875 60.5469 69.1875 49.125 Q69.1875 37.6406 61.7422 31.4688 Q54.2969 25.2969 40.375 25.2969 L27.9844 25.2969 L27.9844 0 L9.1875 0 L9.1875 72.9062 ZM27.9844 59.2812 L27.9844 38.9219 L38.375 38.9219 Q43.8438 38.9219 46.8281 41.5781 Q49.8125 44.2344 49.8125 49.125 Q49.8125 54 46.8281 56.6406 Q43.8438 59.2812 38.375 59.2812 L27.9844 59.2812 Z"
        /><glyph unicode="s" horiz-adv-x="59.521484" d="M51.125 52.9844 L51.125 39.7031 Q45.5156 42.0469 40.2891 43.2188 Q35.0625 44.3906 30.4219 44.3906 Q25.4375 44.3906 23.0234 43.1406 Q20.6094 41.8906 20.6094 39.3125 Q20.6094 37.2031 22.4375 36.0859 Q24.2656 34.9688 29 34.4219 L32.0781 33.9844 Q45.5156 32.2812 50.1484 28.375 Q54.7812 24.4688 54.7812 16.1094 Q54.7812 7.375 48.3359 2.9766 Q41.8906 -1.4219 29.1094 -1.4219 Q23.6875 -1.4219 17.8984 -0.5625 Q12.1094 0.2969 6 2 L6 15.2812 Q11.2344 12.75 16.7266 11.4766 Q22.2188 10.2031 27.875 10.2031 Q33.0156 10.2031 35.6016 11.6172 Q38.1875 13.0312 38.1875 15.8281 Q38.1875 18.1719 36.4062 19.3125 Q34.625 20.4531 29.2969 21.0938 L26.2188 21.4844 Q14.5469 22.9531 9.8594 26.9062 Q5.1719 30.8594 5.1719 38.9219 Q5.1719 47.6094 11.1328 51.8047 Q17.0938 56 29.3906 56 Q34.2344 56 39.5547 55.2734 Q44.875 54.5469 51.125 52.9844 Z"
        /><glyph unicode="r" horiz-adv-x="49.316406" d="M49.0312 39.7969 Q46.7344 40.875 44.4609 41.3828 Q42.1875 41.8906 39.8906 41.8906 Q33.1562 41.8906 29.5156 37.5703 Q25.875 33.25 25.875 25.2031 L25.875 0 L8.4062 0 L8.4062 54.6875 L25.875 54.6875 L25.875 45.7031 Q29.25 51.0781 33.6172 53.5391 Q37.9844 56 44.0938 56 Q44.9688 56 45.9922 55.9297 Q47.0156 55.8594 48.9688 55.6094 L49.0312 39.7969 Z"
        /><glyph unicode="S" horiz-adv-x="72.021484" d="M59.9062 70.6094 L59.9062 55.1719 Q53.9062 57.8594 48.1953 59.2266 Q42.4844 60.5938 37.4062 60.5938 Q30.6719 60.5938 27.4453 58.7422 Q24.2188 56.8906 24.2188 52.9844 Q24.2188 50.0469 26.3906 48.4141 Q28.5625 46.7812 34.2812 45.6094 L42.2812 44 Q54.4375 41.5469 59.5703 36.5703 Q64.7031 31.5938 64.7031 22.4062 Q64.7031 10.3594 57.5469 4.4688 Q50.3906 -1.4219 35.6875 -1.4219 Q28.7656 -1.4219 21.7812 -0.1016 Q14.7969 1.2188 7.8125 3.8125 L7.8125 19.6719 Q14.7969 15.9688 21.3125 14.0859 Q27.8281 12.2031 33.8906 12.2031 Q40.0469 12.2031 43.3125 14.2578 Q46.5781 16.3125 46.5781 20.125 Q46.5781 23.5312 44.3594 25.3906 Q42.1406 27.25 35.5 28.7188 L28.2188 30.3281 Q17.2812 32.6719 12.2266 37.7969 Q7.1719 42.9219 7.1719 51.6094 Q7.1719 62.5 14.2031 68.3594 Q21.2344 74.2188 34.4219 74.2188 Q40.4375 74.2188 46.7812 73.3125 Q53.125 72.4062 59.9062 70.6094 Z"
        /><glyph unicode=" " horiz-adv-x="34.814453" d=""
        /><glyph unicode="e" horiz-adv-x="67.822266" d="M62.9844 27.4844 L62.9844 22.5156 L22.125 22.5156 Q22.75 16.3594 26.5625 13.2812 Q30.375 10.2031 37.2031 10.2031 Q42.7188 10.2031 48.5078 11.8438 Q54.2969 13.4844 60.4062 16.7969 L60.4062 3.3281 Q54.2031 0.9844 48 -0.2188 Q41.7969 -1.4219 35.5938 -1.4219 Q20.75 -1.4219 12.5234 6.125 Q4.2969 13.6719 4.2969 27.2969 Q4.2969 40.6719 12.375 48.3359 Q20.4531 56 34.625 56 Q47.5156 56 55.25 48.2422 Q62.9844 40.4844 62.9844 27.4844 ZM45.0156 33.2969 Q45.0156 38.2812 42.1094 41.3359 Q39.2031 44.3906 34.5156 44.3906 Q29.4375 44.3906 26.2656 41.5312 Q23.0938 38.6719 22.3125 33.2969 L45.0156 33.2969 Z"
        /><glyph unicode="m" horiz-adv-x="104.19922" d="M59.0781 45.6094 Q62.4062 50.6875 66.9688 53.3438 Q71.5312 56 77 56 Q86.4219 56 91.3594 50.1953 Q96.2969 44.3906 96.2969 33.2969 L96.2969 0 L78.7188 0 L78.7188 28.5156 Q78.7656 29.1562 78.7891 29.8359 Q78.8125 30.5156 78.8125 31.7812 Q78.8125 37.5938 77.1016 40.2109 Q75.3906 42.8281 71.5781 42.8281 Q66.6094 42.8281 63.8984 38.7266 Q61.1875 34.625 61.0781 26.8594 L61.0781 0 L43.5 0 L43.5 28.5156 Q43.5 37.5938 41.9375 40.2109 Q40.375 42.8281 36.375 42.8281 Q31.3438 42.8281 28.6094 38.7031 Q25.875 34.5781 25.875 26.9062 L25.875 0 L8.2969 0 L8.2969 54.6875 L25.875 54.6875 L25.875 46.6875 Q29.1094 51.3125 33.2812 53.6562 Q37.4531 56 42.4844 56 Q48.1406 56 52.4922 53.2656 Q56.8438 50.5312 59.0781 45.6094 Z"
        /><glyph unicode="i" horiz-adv-x="34.277344" d="M8.4062 54.6875 L25.875 54.6875 L25.875 0 L8.4062 0 L8.4062 54.6875 ZM8.4062 75.9844 L25.875 75.9844 L25.875 61.7188 L8.4062 61.7188 L8.4062 75.9844 Z"
        /><glyph unicode="T" horiz-adv-x="68.21289" d="M0.4844 72.9062 L67.6719 72.9062 L67.6719 58.6875 L43.5 58.6875 L43.5 0 L24.7031 0 L24.7031 58.6875 L0.4844 58.6875 L0.4844 72.9062 Z"
      /></font
    ></defs
    ><g style="fill:white; stroke:white;"
    ><rect x="0" y="0" width="1319" style="clip-path:url(#clipPath1); stroke:none;" height="661"
    /></g
    ><g style="fill:white; text-rendering:optimizeSpeed; color-rendering:optimizeSpeed; image-rendering:optimizeSpeed; shape-rendering:crispEdges; color-interpolation:sRGB; stroke:white;"
    ><rect x="0" width="1319" height="661" y="0" style="stroke:none;"
      /><path style="stroke:none;" d="M171 588 L1194 588 L1194 50 L171 50 Z"
    /></g
    ><g style="stroke-linecap:butt; fill-opacity:0.149; fill:rgb(38,38,38); text-rendering:geometricPrecision; color-rendering:optimizeQuality; image-rendering:optimizeQuality; stroke-linejoin:round; color-interpolation:linearRGB; stroke:rgb(38,38,38); stroke-width:0.6667; stroke-opacity:0.149;"
    ><line y2="50" style="fill:none;" x1="171" x2="171" y1="588"
      /><line y2="50" style="fill:none;" x1="317.1429" x2="317.1429" y1="588"
      /><line y2="50" style="fill:none;" x1="463.2857" x2="463.2857" y1="588"
      /><line y2="50" style="fill:none;" x1="609.4286" x2="609.4286" y1="588"
      /><line y2="50" style="fill:none;" x1="755.5714" x2="755.5714" y1="588"
      /><line y2="50" style="fill:none;" x1="901.7143" x2="901.7143" y1="588"
      /><line y2="50" style="fill:none;" x1="1047.8572" x2="1047.8572" y1="588"
      /><line y2="50" style="fill:none;" x1="1194" x2="1194" y1="588"
      /><line y2="588" style="fill:none;" x1="1194" x2="171" y1="588"
      /><line y2="480.4" style="fill:none;" x1="1194" x2="171" y1="480.4"
      /><line y2="372.8" style="fill:none;" x1="1194" x2="171" y1="372.8"
      /><line y2="265.2" style="fill:none;" x1="1194" x2="171" y1="265.2"
      /><line y2="157.6" style="fill:none;" x1="1194" x2="171" y1="157.6"
      /><line y2="50" style="fill:none;" x1="1194" x2="171" y1="50"
      /><line x1="171" x2="1194" y1="588" style="stroke-linecap:square; fill-opacity:1; fill:none; stroke-opacity:1;" y2="588"
      /><line x1="171" x2="171" y1="588" style="stroke-linecap:square; fill-opacity:1; fill:none; stroke-opacity:1;" y2="577.77"
      /><line x1="317.1429" x2="317.1429" y1="588" style="stroke-linecap:square; fill-opacity:1; fill:none; stroke-opacity:1;" y2="577.77"
      /><line x1="463.2857" x2="463.2857" y1="588" style="stroke-linecap:square; fill-opacity:1; fill:none; stroke-opacity:1;" y2="577.77"
      /><line x1="609.4286" x2="609.4286" y1="588" style="stroke-linecap:square; fill-opacity:1; fill:none; stroke-opacity:1;" y2="577.77"
      /><line x1="755.5714" x2="755.5714" y1="588" style="stroke-linecap:square; fill-opacity:1; fill:none; stroke-opacity:1;" y2="577.77"
      /><line x1="901.7143" x2="901.7143" y1="588" style="stroke-linecap:square; fill-opacity:1; fill:none; stroke-opacity:1;" y2="577.77"
      /><line x1="1047.8572" x2="1047.8572" y1="588" style="stroke-linecap:square; fill-opacity:1; fill:none; stroke-opacity:1;" y2="577.77"
      /><line x1="1194" x2="1194" y1="588" style="stroke-linecap:square; fill-opacity:1; fill:none; stroke-opacity:1;" y2="577.77"
    /></g
    ><g transform="translate(171,593.3333)" style="font-size:13px; fill:rgb(38,38,38); text-rendering:geometricPrecision; color-rendering:optimizeQuality; image-rendering:optimizeQuality; font-family:'SansSerif'; color-interpolation:linearRGB; stroke:rgb(38,38,38);"
    ><text x="-4.5" xml:space="preserve" y="13" style="stroke:none;"
      >0</text
    ></g
    ><g transform="translate(317.1429,593.3333)" style="font-size:13px; fill:rgb(38,38,38); text-rendering:geometricPrecision; color-rendering:optimizeQuality; image-rendering:optimizeQuality; font-family:'SansSerif'; color-interpolation:linearRGB; stroke:rgb(38,38,38);"
    ><text x="-4.5" xml:space="preserve" y="13" style="stroke:none;"
      >5</text
    ></g
    ><g transform="translate(463.2857,593.3333)" style="font-size:13px; fill:rgb(38,38,38); text-rendering:geometricPrecision; color-rendering:optimizeQuality; image-rendering:optimizeQuality; font-family:'SansSerif'; color-interpolation:linearRGB; stroke:rgb(38,38,38);"
    ><text x="-8.5" xml:space="preserve" y="13" style="stroke:none;"
      >10</text
    ></g
    ><g transform="translate(609.4286,593.3333)" style="font-size:13px; fill:rgb(38,38,38); text-rendering:geometricPrecision; color-rendering:optimizeQuality; image-rendering:optimizeQuality; font-family:'SansSerif'; color-interpolation:linearRGB; stroke:rgb(38,38,38);"
    ><text x="-8.5" xml:space="preserve" y="13" style="stroke:none;"
      >15</text
    ></g
    ><g transform="translate(755.5714,593.3333)" style="font-size:13px; fill:rgb(38,38,38); text-rendering:geometricPrecision; color-rendering:optimizeQuality; image-rendering:optimizeQuality; font-family:'SansSerif'; color-interpolation:linearRGB; stroke:rgb(38,38,38);"
    ><text x="-8.5" xml:space="preserve" y="13" style="stroke:none;"
      >20</text
    ></g
    ><g transform="translate(901.7143,593.3333)" style="font-size:13px; fill:rgb(38,38,38); text-rendering:geometricPrecision; color-rendering:optimizeQuality; image-rendering:optimizeQuality; font-family:'SansSerif'; color-interpolation:linearRGB; stroke:rgb(38,38,38);"
    ><text x="-8.5" xml:space="preserve" y="13" style="stroke:none;"
      >25</text
    ></g
    ><g transform="translate(1047.8572,593.3333)" style="font-size:13px; fill:rgb(38,38,38); text-rendering:geometricPrecision; color-rendering:optimizeQuality; image-rendering:optimizeQuality; font-family:'SansSerif'; color-interpolation:linearRGB; stroke:rgb(38,38,38);"
    ><text x="-8.5" xml:space="preserve" y="13" style="stroke:none;"
      >30</text
    ></g
    ><g transform="translate(1194,593.3333)" style="font-size:13px; fill:rgb(38,38,38); text-rendering:geometricPrecision; color-rendering:optimizeQuality; image-rendering:optimizeQuality; font-family:'SansSerif'; color-interpolation:linearRGB; stroke:rgb(38,38,38);"
    ><text x="-8.5" xml:space="preserve" y="13" style="stroke:none;"
      >35</text
    ></g
    ><g transform="translate(682.5005,611.6667)" style="font-size:15px; fill:rgb(38,38,38); text-rendering:geometricPrecision; color-rendering:optimizeQuality; image-rendering:optimizeQuality; font-family:'SansSerif'; color-interpolation:linearRGB; stroke:rgb(38,38,38);"
    ><text x="-57.5" xml:space="preserve" y="14" style="stroke:none;"
      >Time (seconds)</text
    ></g
    ><g style="fill:rgb(38,38,38); text-rendering:geometricPrecision; color-rendering:optimizeQuality; image-rendering:optimizeQuality; stroke-linejoin:round; color-interpolation:linearRGB; stroke:rgb(38,38,38); stroke-width:0.6667;"
    ><line y2="50" style="fill:none;" x1="171" x2="171" y1="588"
      /><line y2="588" style="fill:none;" x1="171" x2="181.23" y1="588"
      /><line y2="480.4" style="fill:none;" x1="171" x2="181.23" y1="480.4"
      /><line y2="372.8" style="fill:none;" x1="171" x2="181.23" y1="372.8"
      /><line y2="265.2" style="fill:none;" x1="171" x2="181.23" y1="265.2"
      /><line y2="157.6" style="fill:none;" x1="171" x2="181.23" y1="157.6"
      /><line y2="50" style="fill:none;" x1="171" x2="181.23" y1="50"
    /></g
    ><g transform="translate(165.6667,588)" style="font-size:13px; fill:rgb(38,38,38); text-rendering:geometricPrecision; color-rendering:optimizeQuality; image-rendering:optimizeQuality; font-family:'SansSerif'; color-interpolation:linearRGB; stroke:rgb(38,38,38);"
    ><text x="-22" xml:space="preserve" y="4.5" style="stroke:none;"
      >-20</text
    ></g
    ><g transform="translate(165.6667,480.4)" style="font-size:13px; fill:rgb(38,38,38); text-rendering:geometricPrecision; color-rendering:optimizeQuality; image-rendering:optimizeQuality; font-family:'SansSerif'; color-interpolation:linearRGB; stroke:rgb(38,38,38);"
    ><text x="-22" xml:space="preserve" y="4.5" style="stroke:none;"
      >-15</text
    ></g
    ><g transform="translate(165.6667,372.8)" style="font-size:13px; fill:rgb(38,38,38); text-rendering:geometricPrecision; color-rendering:optimizeQuality; image-rendering:optimizeQuality; font-family:'SansSerif'; color-interpolation:linearRGB; stroke:rgb(38,38,38);"
    ><text x="-22" xml:space="preserve" y="4.5" style="stroke:none;"
      >-10</text
    ></g
    ><g transform="translate(165.6667,265.2)" style="font-size:13px; fill:rgb(38,38,38); text-rendering:geometricPrecision; color-rendering:optimizeQuality; image-rendering:optimizeQuality; font-family:'SansSerif'; color-interpolation:linearRGB; stroke:rgb(38,38,38);"
    ><text x="-13" xml:space="preserve" y="4.5" style="stroke:none;"
      >-5</text
    ></g
    ><g transform="translate(165.6667,157.6)" style="font-size:13px; fill:rgb(38,38,38); text-rendering:geometricPrecision; color-rendering:optimizeQuality; image-rendering:optimizeQuality; font-family:'SansSerif'; color-interpolation:linearRGB; stroke:rgb(38,38,38);"
    ><text x="-9" xml:space="preserve" y="4.5" style="stroke:none;"
      >0</text
    ></g
    ><g transform="translate(165.6667,50)" style="font-size:13px; fill:rgb(38,38,38); text-rendering:geometricPrecision; color-rendering:optimizeQuality; image-rendering:optimizeQuality; font-family:'SansSerif'; color-interpolation:linearRGB; stroke:rgb(38,38,38);"
    ><text x="-9" xml:space="preserve" y="4.5" style="stroke:none;"
      >5</text
    ></g
    ><g transform="translate(139.6667,318.9997) rotate(-90)" style="font-size:15px; fill:rgb(38,38,38); text-rendering:geometricPrecision; color-rendering:optimizeQuality; image-rendering:optimizeQuality; font-family:'SansSerif'; color-interpolation:linearRGB; stroke:rgb(38,38,38);"
    ><text x="-17" xml:space="preserve" y="-4" style="stroke:none;"
      >data</text
    ></g
    ><g transform="translate(171,46)" style="font-size:13px; fill:rgb(38,38,38); text-rendering:geometricPrecision; color-rendering:optimizeQuality; image-rendering:optimizeQuality; font-family:'mwb_cmsy10'; color-interpolation:linearRGB; stroke:rgb(38,38,38);"
    ><text x="0" xml:space="preserve" y="0" style="stroke:none;"
      >#</text
    ></g
    ><g transform="translate(182,46)" style="font-size:13px; fill:rgb(38,38,38); text-rendering:geometricPrecision; color-rendering:optimizeQuality; image-rendering:optimizeQuality; font-family:'SansSerif'; color-interpolation:linearRGB; stroke:rgb(38,38,38);"
    ><text x="0" xml:space="preserve" y="0" style="stroke:none;"
      >10</text
    ></g
    ><g transform="translate(199,40)" style="font-size:11px; fill:rgb(38,38,38); text-rendering:geometricPrecision; color-rendering:optimizeQuality; image-rendering:optimizeQuality; font-family:'SansSerif'; color-interpolation:linearRGB; stroke:rgb(38,38,38);"
    ><text x="0" xml:space="preserve" y="0" style="stroke:none;"
      >-3</text
    ></g
    ><g transform="translate(682.5007,47.25)" style="font-size:15px; text-rendering:geometricPrecision; color-rendering:optimizeQuality; image-rendering:optimizeQuality; font-family:'SansSerif'; color-interpolation:linearRGB; font-weight:bold;"
    ><text x="-72" xml:space="preserve" y="-4" style="stroke:none;"
      >Time Series Plot:</text
    ></g
    ><g style="stroke-linecap:butt; fill:rgb(0,114,189); text-rendering:geometricPrecision; color-rendering:optimizeQuality; image-rendering:optimizeQuality; stroke-linejoin:round; color-interpolation:linearRGB; stroke:rgb(0,114,189); stroke-width:0.6667;"
    ><path d="M171 157.6 L172.4614 157.6 L173.9229 158.8577 L175.3843 86.0785 L176.8457 71.5205 L178.3071 68.1069 L179.7686 76.9579 L181.23 75.6547 L182.6914 79.8888 L184.1529 77.3288 L185.6143 78.0624 L187.0757 92.1753 L188.5371 102.8551 L189.9986 112.3417 L191.46 117.2713 L192.9214 118.7653 L194.3829 124.6672 L195.8443 126.0107 L197.3057 125.0369 L198.7671 104.9313 L200.2286 95.9572 L201.69 92.5086 L203.1514 91.2228 L204.6129 97.7039 L206.0743 106.3474 L207.5357 112.6678 L208.9971 112.1827 L210.4586 112.737 L211.92 117.693 L213.3814 120.3259 L214.8428 128.4799 L216.3043 136.5517 L217.7657 137.815 L219.2271 135.6323 L220.6886 127.7622 L222.15 123.1704 L223.6114 114.0116 L225.0729 111.4929 L226.5343 112.253 L227.9957 110.6858 L229.4571 107.9141 L230.9186 112.9025 L232.38 116.6856 L233.8414 121.504 L235.3029 123.9959 L236.7643 125.2827 L238.2257 133.2083 L239.6871 134.3238 L241.1486 129.75 L242.61 131.8168 L244.0714 129.3141 L245.5329 127.8477 L246.9943 131.9006 L248.4557 134.7473 L249.9171 141.9931 L251.3786 143.5494 L252.84 145.0213 L254.3014 147.5302 L255.7629 147.7125 L257.2243 151.1731 L258.6857 155.6709 L260.1472 147.7556 L261.6086 140.8771 L263.07 144.0029 L264.5314 144.8037 L265.9929 143.2794 L267.4543 145.0349 L268.9157 141.1041 L270.3771 138.2112 L271.8386 140.8407 L273.3 140.0257 L274.7614 142.4913 L276.2228 147.1171 L277.6843 155.024 L279.1457 156.1254 L280.6071 156.0255 L282.0686 153.603 L283.53 153.3426 L284.9914 154.1233 L286.4529 155.9448 L287.9143 154.3247 L289.3757 153.7465 L290.8371 153.0899 L292.2986 153.4756 L293.76 158.267 L295.2214 166.3424 L296.6829 165.3746 L298.1443 165.4499 L299.6057 164.3279 L301.0671 166.4921 L302.5286 165.2172 L303.99 164.9878 L305.4514 169.1657 L306.9129 169.9059 L308.3743 169.4508 L309.8357 171.1624 L311.2971 166.0751 L312.7586 172.1218 L314.22 174.7327 L315.6814 179.5119 L317.1429 179.735 L318.6043 182.1271 L320.0657 183.3256 L321.5272 181.0897 L322.9886 178.7829 L324.45 177.5246 L325.9114 179.5581 L327.3729 181.5208 L328.8343 181.1714 L330.2957 182.9936 L331.7571 182.5042 L333.2186 186.429 L334.68 186.9215 L336.1414 191.8288 L337.6028 196.6674 L339.0643 194.713 L340.5257 193.8111 L341.9872 192.8419 L343.4486 192.9253 L344.91 188.4592 L346.3714 187.2883 L347.8329 192.7759 L349.2943 191.4722 L350.7557 192.3445 L352.2171 195.3929 L353.6786 195.0127 L355.14 199.0512 L356.6014 199.6625 L358.0629 201.3296 L359.5243 204.0531 L360.9857 207.8338 L362.4471 205.9462 L363.9086 207.3579 L365.37 207.5851 L366.8314 209.9913 L368.2928 206.7304 L369.7543 205.6484 L371.2157 204.5041 L372.6772 210.0227 L374.1386 207.6337 L375.6 210.7873 L377.0614 209.396 L378.5229 210.1849 L379.9843 212.0341 L381.4457 210.4597 L382.9071 217.7916 L384.3686 222.8217 L385.83 219.9457 L387.2914 221.4927 L388.7528 217.376 L390.2143 212.0789 L391.6757 214.5685 L393.1371 215.8781 L394.5986 214.8867 L396.06 212.7157 L397.5214 216.0905 L398.9828 219.4063 L400.4443 224.9059 L401.9057 225.8637 L403.3671 225.6429 L404.8286 223.1222 L406.29 221.665 L407.7514 226.8751 L409.2129 224.1815 L410.6743 223.6731 L412.1357 223.1069 L413.5971 223.6049 L415.0586 228.5291 L416.52 227.7921 L417.9814 229.2404 L419.4429 231.753 L420.9043 228.6047 L422.3657 232.125 L423.8271 235.5894 L425.2886 231.1517 L426.75 236.7453 L428.2114 237.7999 L429.6729 237.6772 L431.1343 230.7739 L432.5957 231.6611 L434.0571 233.6129 L435.5186 238.8716 L436.98 236.2288 L438.4414 240.256 L439.9029 238.6234 L441.3643 243.6604 L442.8257 247.521 L444.2871 250.2055 L445.7486 252.8349 L447.21 252.0461 L448.6714 250.0817 L450.1329 253.6661 L451.5943 256.0744 L453.0557 256.1858 L454.5172 252.88 L455.9786 254.0022 L457.44 249.4646 L458.9014 252.7179 L460.3629 250.3121 L461.8243 255.6969 L463.2857 257.6638 L464.7472 258.4548 L466.2086 259.1906 L467.67 255.3877 L469.1314 258.2543 L470.5929 257.7032 L472.0543 254.8552 L473.5157 257.5561 L474.9771 256.839 L476.4386 258.3075 L477.9 258.6001 L479.3614 259.9577 L480.8229 267.9845 L482.2843 270.3517 L483.7457 273.7836 L485.2072 277.1595 L486.6686 279.3588 L488.13 278.1394 L489.5914 277.9846 L491.0529 275.5319 L492.5143 275.2644 L493.9757 278.303 L495.4372 274.5599 L496.8986 276.3642 L498.36 273.6282 L499.8214 278.6816 L501.2829 279.1943 L502.7443 281.8916 L504.2057 281.169 L505.6671 284.8723 L507.1286 285.1553 L508.59 286.502 L510.0515 286.6692 L511.5128 285.6578 L512.9743 280.1051 L514.4357 289.0644 L515.8972 292.3613 L517.3586 291.1163 L518.82 290.9328 L520.2814 290.6907 L521.7429 297.1143 L523.2043 295.6327 L524.6657 298.5743 L526.1271 295.8526 L527.5886 298.6749 L529.05 302.5579 L530.5114 298.5347 L531.9728 297.813 L533.4343 300.3932 L534.8957 304.0333 L536.3571 304.2497 L537.8186 311.1297 L539.28 306.74 L540.7414 309.0129 L542.2029 310.103 L543.6643 308.8891 L545.1257 313.2164 L546.5872 315.2394 L548.0486 317.1995 L549.51 316.8546 L550.9714 319.8085 L552.4329 319.3358 L553.8943 324.4036 L555.3557 323.8028 L556.8171 323.1375 L558.2786 325.7696 L559.74 331.6991 L561.2014 333.0797 L562.6628 331.0324 L564.1243 333.402 L565.5857 332.3433 L567.0471 331.2181 L568.5086 333.388 L569.97 334.3703 L571.4314 329.6813 L572.8929 336.1325 L574.3543 342.5157 L575.8157 345.469 L577.2772 347.232 L578.7386 346.6846 L580.2 347.1889 L581.6614 348.7445 L583.1229 349.1097 L584.5843 348.284 L586.0457 350.7502 L587.5071 353.1457 L588.9686 355.4705 L590.43 356.6028 L591.8914 358.784 L593.3528 362.0145 L594.8143 360.6895 L596.2757 362.6538 L597.7372 364.5459 L599.1985 366.3642 L600.66 366.9886 L602.1214 364.1764 L603.5829 372.4989 L605.0443 368.4173 L606.5057 375.4691 L607.9672 374.6002 L609.4286 377.0186 L610.89 373.7567 L612.3514 383.8689 L613.8129 383.8174 L615.2743 385.9308 L616.7357 382.3632 L618.1971 384.3224 L619.6586 382.8418 L621.12 383.5249 L622.5814 387.4924 L624.0428 395.8646 L625.5043 399.6746 L626.9657 402.2852 L628.4271 404.8163 L629.8885 406.1469 L631.35 404.0351 L632.8115 400.7227 L634.2729 404.0549 L635.7343 409.5481 L637.1957 405.9935 L638.6572 403.4789 L640.1185 404.245 L641.58 413.8965 L643.0414 411.1365 L644.5029 415.0198 L645.9643 419.9416 L647.4257 424.7809 L648.8871 423.933 L650.3486 425.2444 L651.81 430.9558 L653.2714 432.1005 L654.7328 437.6454 L656.1943 434.14 L657.6557 435.0343 L659.1172 435.8441 L660.5786 432.0872 L662.04 437.2126 L663.5015 441.1333 L664.9628 441.6064 L666.4243 443.1168 L667.8857 442.3006 L669.3471 444.7628 L670.8086 449.3819 L672.27 455.037 L673.7314 455.0035 L675.1929 454.8861 L676.6542 455.8043 L678.1157 462.2425 L679.5771 464.1127 L681.0386 463.6573 L682.5 464.2376 L683.9614 461.3722 L685.4229 468.5096 L686.8843 466.5968 L688.3458 471.3256 L689.8071 472.6075 L691.2686 474.9275 L692.73 479.4065 L694.1914 480.4392 L695.6529 482.5111 L697.1143 483.3792 L698.5757 486.4078 L700.0372 487.1123 L701.4985 489.9779 L702.96 488.2798 L704.4214 488.7422 L705.8828 489.1253 L707.3443 490.5496 L708.8057 493.0164 L710.2672 493.1625 L711.7286 493.2309 L713.19 493.223 L714.6514 503.2253 L716.1129 503.0643 L717.5743 503.9498 L719.0357 511.4854 L720.4971 511.1018 L721.9586 515.1289 L723.42 514.6001 L724.8815 516.2427 L726.3428 518.9352 L727.8043 520.438 L729.2657 511.7854 L730.7271 514.2739 L732.1886 515.5755 L733.65 520.1746 L735.1114 526.9521 L736.5729 532.5462 L738.0343 529.1117 L739.4957 517.7714 L740.9572 524.306 L742.4186 526.3006 L743.88 528.2385 L745.3414 531.2437 L746.8029 534.1949 L748.2643 530.3705 L749.7257 534.342 L751.1871 536.024 L752.6486 528.693 L754.11 531.4047 L755.5714 538.5576 L757.0328 538.9438 L758.4943 537.0491 L759.9557 536.2387 L761.4172 538.7558 L762.8786 549.0858 L764.34 542.5719 L765.8015 549.4802 L767.2628 550.7577 L768.7243 543.0443 L770.1857 544.2759 L771.6471 548.8503 L773.1086 550.0461 L774.57 552.3472 L776.0314 555.7576 L777.4929 556.9175 L778.9543 553.5876 L780.4157 551.3738 L781.8771 550.2803 L783.3386 550.3088 L784.8 545.8586 L786.2614 554.8668 L787.7228 544.8305 L789.1843 544.8951 L790.6458 549.4598 L792.1071 545.0776 L793.5685 549.6849 L795.03 550.9558 L796.4914 546.6518 L797.9529 544.623 L799.4143 545.992 L800.8757 546.2804 L802.3372 549.9737 L803.7986 549.2307 L805.26 545.1751 L806.7214 546.7774 L808.1829 539.4711 L809.6443 538.9496 L811.1057 541.8567 L812.5671 534.744 L814.0286 529.9451 L815.49 537.5519 L816.9514 542.9973 L818.4128 540.6802 L819.8743 538.451 L821.3357 529.5881 L822.7971 535.3937 L824.2586 526.7263 L825.72 527.1299 L827.1815 524.2795 L828.6429 518.1776 L830.1042 518.9163 L831.5657 513.0501 L833.0272 510.671 L834.4886 508.4195 L835.95 511.9042 L837.4114 508.8011 L838.8729 503.5954 L840.3343 506.3806 L841.7957 503.7101 L843.2571 495.5882 L844.7186 497.7101 L846.18 496.6299 L847.6414 496.8359 L849.1029 489.363 L850.5643 487.6684 L852.0257 485.0295 L853.4872 478.0874 L854.9485 466.8467 L856.41 465.8806 L857.8714 466.2277 L859.3328 474.6172 L860.7943 477.6011 L862.2557 465.0958 L863.7172 446.0727 L865.1786 449.6769 L866.64 450.1323 L868.1014 450.8036 L869.5629 449.4546 L871.0243 442.725 L872.4857 430.618 L873.9471 434.4314 L875.4086 433.9968 L876.87 430.4347 L878.3314 429.3531 L879.7928 417.3045 L881.2543 405.502 L882.7157 400.6708 L884.1771 396.0887 L885.6386 397.3636 L887.1 397.7718 L888.5614 398.4377 L890.0229 390.395 L891.4843 382.6116 L892.9457 386.3013 L894.4072 382.4098 L895.8685 370.9384 L897.33 366.4591 L898.7914 354.4038 L900.2529 351.5867 L901.7143 361.3697 L903.1757 360.2188 L904.6371 348.133 L906.0986 341.9261 L907.56 332.633 L909.0214 330.3412 L910.4828 328.3265 L911.9443 328.8294 L913.4057 315.0416 L914.8672 316.1003 L916.3286 311.8336 L917.79 305.6029 L919.2515 307.495 L920.7128 301.8181 L922.1743 293.0568 L923.6357 299.1421 L925.0971 288.6886 L926.5586 284.1153 L928.02 276.4519 L929.4814 270.1831 L930.9429 264.1844 L932.4042 265.1817 L933.8657 267.5666 L935.3271 273.5823 L936.7886 261.93 L938.25 253.9028 L939.7114 251.7417 L941.1729 245.358 L942.6343 235.8683 L944.0958 232.2385 L945.5571 224.3775 L947.0186 216.7677 L948.48 218.3737 L949.9414 219.1037 L951.4029 212.2313 L952.8643 206.7188 L954.3257 209.2901 L955.7872 223.3032 L957.2485 220.736 L958.71 209.4306 L960.1714 203.9536 L961.6328 190.8533 L963.0943 193.663 L964.5557 196.6871 L966.0172 193.1996 L967.4786 187.6766 L968.94 176.7548 L970.4014 162.673 L971.8629 167.8399 L973.3243 163.1159 L974.7857 166.4258 L976.2471 162.0759 L977.7086 151.1822 L979.17 140.4698 L980.6315 138.8963 L982.0928 145.3391 L983.5543 149.7081 L985.0157 156.4808 L986.4771 151.0827 L987.9386 131.2687 L989.4 130.6593 L990.8614 129.0752 L992.3229 133.2377 L993.7843 138.6604 L995.2457 140.8537 L996.7072 135.333 L998.1686 118.728 L999.63 130.268 L1001.0914 136.3201 L1002.5529 135.7625 L1004.0143 129.7101 L1005.4757 128.2465 L1006.9371 125.7651 L1008.3986 104.3268 L1009.86 108.7617 L1011.3214 114.4078 L1012.7828 116.7773 L1014.2443 122.5924 L1015.7057 118.397 L1017.1672 103.069 L1018.6286 113.59 L1020.09 92.7953 L1021.5515 104.5677 L1023.0128 109.6751 L1024.4744 104.7498 L1025.9357 98.7575 L1027.3971 92.8129 L1028.8586 91.3968 L1030.3199 92.2647 L1031.7815 70.7538 L1033.2428 69.4529 L1034.7042 78.2716 L1036.1658 85.9956 L1037.6271 88.1423 L1039.0886 94.7932 L1040.55 98.1009 L1042.0114 104.786 L1043.4729 95.7918 L1044.9343 83.444 L1046.3958 85.6743 L1047.8572 90.1498 L1049.3186 104.7125 L1050.78 118.1526 L1052.2415 118.1382 L1053.7029 119.2365 L1055.1643 120.3251 L1056.6257 119.159 L1058.0872 110.1308 L1059.5486 99.9649 L1061.01 102.1081 L1062.4714 99.7439 L1063.9329 99.5978 L1065.3943 98.3034 L1066.8557 88.0118 L1068.3171 88.8976 L1069.7786 95.3537 L1071.24 91.6862 L1072.7014 86.8604 L1074.1628 57.3366 L1075.6243 52.4293 L1077.0857 64.2916 L1078.5471 77.228 L1080.0085 88.9981 L1081.47 76.0603 L1082.9314 95.5756 L1084.3928 122.8848 L1085.8542 147.8992 L1087.3157 161.65 L1088.7771 175.3442 L1090.2386 168.8059 L1091.7 162.207" style="fill:none; fill-rule:evenodd;"
    /></g
    ><g style="fill:white; text-rendering:optimizeSpeed; color-rendering:optimizeSpeed; image-rendering:optimizeSpeed; shape-rendering:crispEdges; color-interpolation:sRGB; stroke:white;"
    ><path style="stroke:none;" d="M1114 93 L1114 63 L1181 63 L1181 93 Z"
    /></g
    ><g transform="translate(1151,77)" style="text-rendering:geometricPrecision; font-family:'SansSerif'; color-interpolation:linearRGB; color-rendering:optimizeQuality; image-rendering:optimizeQuality;"
    ><text x="0" xml:space="preserve" y="0" style="stroke:none;"
      >e</text
    ></g
    ><g transform="translate(1159,83)" style="font-size:9px; text-rendering:geometricPrecision; color-rendering:optimizeQuality; image-rendering:optimizeQuality; font-family:'SansSerif'; color-interpolation:linearRGB;"
    ><text x="0" xml:space="preserve" y="0" style="stroke:none;"
      >m</text
    ></g
    ><g transform="translate(1168,89)" style="font-size:7px; text-rendering:geometricPrecision; color-rendering:optimizeQuality; image-rendering:optimizeQuality; font-family:'SansSerif'; color-interpolation:linearRGB;"
    ><text x="0" xml:space="preserve" y="0" style="stroke:none;"
      >00</text
    ></g
    ><g style="stroke-linecap:butt; fill:rgb(0,114,189); text-rendering:geometricPrecision; color-rendering:optimizeQuality; image-rendering:optimizeQuality; stroke-linejoin:round; color-interpolation:linearRGB; stroke:rgb(0,114,189); stroke-width:0.6667;"
    ><line y2="78" style="fill:none;" x1="1118" x2="1148" y1="78"
      /><path d="M1114 93 L1114 63 L1181 63 L1181 93 Z" style="fill:none; fill-rule:evenodd; stroke-linejoin:miter; stroke:rgb(38,38,38);"
    /></g
  ></g
></svg
>
