\relax 
\providecommand\hyper@newdestlabel[2]{}
\providecommand\HyperFirstAtBeginDocument{\AtBeginDocument}
\HyperFirstAtBeginDocument{\ifx\hyper@anchor\@undefined
\global\let\oldcontentsline\contentsline
\gdef\contentsline#1#2#3#4{\oldcontentsline{#1}{#2}{#3}}
\global\let\oldnewlabel\newlabel
\gdef\newlabel#1#2{\newlabelxx{#1}#2}
\gdef\newlabelxx#1#2#3#4#5#6{\oldnewlabel{#1}{{#2}{#3}}}
\AtEndDocument{\ifx\hyper@anchor\@undefined
\let\contentsline\oldcontentsline
\let\newlabel\oldnewlabel
\fi}
\fi}
\global\let\hyper@last\relax 
\gdef\HyperFirstAtBeginDocument#1{#1}
\providecommand\HyField@AuxAddToFields[1]{}
\providecommand\HyField@AuxAddToCoFields[2]{}
\citation{salaris2017online}
\citation{salaris2018perception}
\citation{collewet2008visual}
\select@language{english}
\@writefile{toc}{\select@language{english}}
\@writefile{lof}{\select@language{english}}
\@writefile{lot}{\select@language{english}}
\@writefile{toc}{\contentsline {section}{\numberline {1}First meeting with Paolos and Marco C. (19-02-2018)}{1}{section.1}}
\@writefile{toc}{\contentsline {section}{\numberline {2}Meeting with Eric (21-02-2018)}{1}{section.2}}
\newlabel{eq:poseDyn}{{1}{1}{Meeting with Eric (21-02-2018)}{equation.2.1}{}}
\citation{hartley2003multiple}
\providecommand*\caption@xref[2]{\@setref\relax\@undefined{#1}}
\newlabel{fig:reference_frames}{{1a}{2}{The described working environment\relax }{figure.caption.2}{}}
\newlabel{sub@fig:reference_frames}{{a}{2}{The described working environment\relax }{figure.caption.2}{}}
\newlabel{fig:phong-model}{{1b}{2}{The Phong illumination model\relax }{figure.caption.2}{}}
\newlabel{sub@fig:phong-model}{{b}{2}{The Phong illumination model\relax }{figure.caption.2}{}}
\@writefile{toc}{\contentsline {section}{\numberline {3}Considerations on Problem statement}{2}{section.3}}
\newlabel{eq:homography-relationship}{{2}{2}{Measurement model}{equation.3.2}{}}
\citation{collewet2011photometric}
\newlabel{eq:homography}{{3}{3}{Measurement model}{equation.3.3}{}}
\newlabel{eq:phong-model}{{4}{3}{Measurement model}{equation.3.4}{}}
\newlabel{eq:phong-model-simplified}{{5}{3}{Measurement model}{equation.3.5}{}}
\newlabel{eq:final-image-expression}{{6}{3}{Measurement model}{equation.3.6}{}}
\@writefile{toc}{\contentsline {section}{\numberline {4}2$^{nd}$ Meeting with Paolos (28-03-2018)}{3}{section.4}}
\newlabel{eq:estimating-state}{{7}{3}{2$^{nd}$ Meeting with Paolos (28-03-2018)}{equation.4.7}{}}
\citation{collewet2011photometric}
\citation{chaumette2006visual}
\citation{spica2013framework}
\citation{bakthavatchalam2015improved}
\citation{giordano2015learning}
\citation{bakthavatchalam2015improved}
\citation{collewet2008visual}
\citation{collewet2011photometric}
\citation{bakthavatchalam2015improved}
\newlabel{eq:state_dynamics}{{8}{4}{2$^{nd}$ Meeting with Paolos (28-03-2018)}{equation.4.8}{}}
\newlabel{eq:image-dynamics}{{9}{4}{2$^{nd}$ Meeting with Paolos (28-03-2018)}{equation.4.9}{}}
\newlabel{eq:intensity-interaction-matrix}{{10}{4}{2$^{nd}$ Meeting with Paolos (28-03-2018)}{equation.4.10}{}}
\newlabel{eq:chi-dynamics}{{11}{4}{2$^{nd}$ Meeting with Paolos (28-03-2018)}{equation.4.11}{}}
\@writefile{toc}{\contentsline {section}{\numberline {5}Photometric Moments}{4}{section.5}}
\newlabel{eq:photometric-moments}{{12}{4}{Photometric Moments}{equation.5.12}{}}
\newlabel{eq:moments-dynamics}{{13}{4}{Photometric Moments}{equation.5.13}{}}
\citation{bakthavatchalam2015improved}
\newlabel{eq:moments-derivative}{{14}{5}{Photometric Moments}{equation.5.14}{}}
\newlabel{eq:ofce}{{15}{5}{Photometric Moments}{equation.5.15}{}}
\newlabel{eq:point-interaction-matrix}{{16}{5}{Photometric Moments}{equation.5.16}{}}
\newlabel{eq:planar-scene}{{17}{5}{Photometric Moments}{equation.5.17}{}}
\newlabel{eq:interaction-matrix-photo-moments}{{18}{5}{Photometric Moments}{equation.5.18}{}}
\newlabel{eq:interaction-matrix-image}{{19}{5}{Photometric Moments}{equation.5.19}{}}
\newlabel{eq:gradient-moments}{{20}{5}{Photometric Moments}{equation.5.20}{}}
\newlabel{eq:no-gradient-moments}{{21}{5}{Photometric Moments}{equation.5.21}{}}
\newlabel{eq:wpm-function}{{22}{5}{Photometric Moments}{equation.5.22}{}}
\citation{giordano2015learning}
\citation{bakthavatchalam2015improved}
\newlabel{eq:uwpm-interaction-matrix}{{23}{6}{Photometric Moments}{equation.5.23}{}}
\newlabel{eq:wpm-interaction-matrix}{{24}{6}{Photometric Moments}{equation.5.24}{}}
\@writefile{toc}{\contentsline {section}{\numberline {6}$3^{rd}$ meeting with Paolos (09-04-2018)}{6}{section.6}}
\@writefile{toc}{\contentsline {section}{\numberline {7}Weighted parametric image moments}{6}{section.7}}
\newlabel{eq:weighted-photometric-moment}{{25}{6}{Weighted parametric image moments}{equation.7.25}{}}
\newlabel{eq:weighted-photometric-moment-derivative}{{26}{7}{Weighted parametric image moments}{equation.7.26}{}}
\newlabel{eq:interaction-matrix-of-weighted-moment}{{27}{7}{Weighted parametric image moments}{equation.7.27}{}}
\newlabel{eq:constrained-polynomial-basis}{{28}{7}{Weighted parametric image moments}{equation.7.28}{}}
\newlabel{eq:polynomial-constraints-x}{{29}{7}{Weighted parametric image moments}{equation.7.29}{}}
\newlabel{eq:polynomial-property}{{30}{7}{Weighted parametric image moments}{equation.7.30}{}}
\newlabel{eq:L-w}{{31}{8}{Weighted parametric image moments}{equation.7.31}{}}
\newlabel{eq:L-w-vx-vy}{{32}{8}{Weighted parametric image moments}{equation.7.32}{}}
\newlabel{eq:w-x1}{{33}{9}{Weighted parametric image moments}{equation.7.33}{}}
\newlabel{eq:w-x2}{{34}{9}{Weighted parametric image moments}{equation.7.34}{}}
\newlabel{eq:w-xy}{{35}{9}{Weighted parametric image moments}{equation.7.35}{}}
\newlabel{eq:m-nabla}{{36}{9}{Weighted parametric image moments}{equation.7.36}{}}
\citation{bakthavatchalam2015improved}
\newlabel{eq:L-w-nabla}{{37}{10}{Weighted parametric image moments}{equation.7.37}{}}
\newlabel{eq:GreenTheorem}{{38}{10}{Weighted parametric image moments}{equation.7.38}{}}
\newlabel{eq:GreenApplication}{{39}{10}{Weighted parametric image moments}{equation.7.39}{}}
\newlabel{eq:mx-nabla-green}{{40}{11}{Weighted parametric image moments}{equation.7.40}{}}
\newlabel{eq:my-nabla-green}{{41}{11}{Weighted parametric image moments}{equation.7.41}{}}
\newlabel{eq:Ltheta}{{42}{11}{Weighted parametric image moments}{equation.7.42}{}}
\newlabel{eq:Ltheta_k}{{43}{11}{Weighted parametric image moments}{equation.7.43}{}}
\newlabel{eq:der_w_thetak}{{44}{11}{Weighted parametric image moments}{equation.7.44}{}}
\@writefile{toc}{\contentsline {section}{\numberline {8}$4^{th}$ meeting with Paolos (12-04-2018)}{11}{section.8}}
\newlabel{eq:L-w-green}{{45}{12}{$4^{th}$ meeting with Paolos (12-04-2018)}{equation.8.45}{}}
\@writefile{toc}{\contentsline {subsection}{\numberline {8.1}Filter}{12}{subsection.8.1}}
\newlabel{eq:measurable-component}{{46}{12}{Filter}{equation.8.46}{}}
\newlabel{eq:measurement-state-dynamics}{{47}{12}{Filter}{equation.8.47}{}}
\@writefile{lof}{\contentsline {figure}{\numberline {2}{\ignorespaces Snapshots of the generation of the synthetic image in V-REP.\relax }}{13}{figure.caption.3}}
\newlabel{fig:perspective-image-vrep}{{2}{13}{Snapshots of the generation of the synthetic image in V-REP.\relax }{figure.caption.3}{}}
\@writefile{toc}{\contentsline {section}{\numberline {9}Meeting with PRG (16/04/2018)}{13}{section.9}}
\@writefile{toc}{\contentsline {subsection}{\numberline {9.1}Generation of the synthetic image for the measurement model}{13}{subsection.9.1}}
\@writefile{lof}{\contentsline {figure}{\numberline {3}{\ignorespaces V-REP setup for the IBVS control scheme.\relax }}{14}{figure.caption.4}}
\newlabel{fig:ibvs-setup}{{3}{14}{V-REP setup for the IBVS control scheme.\relax }{figure.caption.4}{}}
\@writefile{toc}{\contentsline {subsection}{\numberline {9.2}Input velocity trajectories}{14}{subsection.9.2}}
\newlabel{eq:circularVel}{{48}{14}{Input velocity trajectories}{equation.9.48}{}}
\newlabel{eq:ibvs-control-law}{{49}{14}{Input velocity trajectories}{equation.9.49}{}}
\@writefile{toc}{\contentsline {section}{\numberline {10}Integral-based validation: first results}{14}{section.10}}
\@writefile{lof}{\contentsline {figure}{\numberline {4}{\ignorespaces Comparison of $\boldsymbol  {\chi }$ measured plane coefficients and propagated ones, during online simulation with V-REP scene communication enabled.\relax }}{15}{figure.caption.5}}
\newlabel{fig:chi_comparison}{{4}{15}{Comparison of $\boldsymbol {\chi }$ measured plane coefficients and propagated ones, during online simulation with V-REP scene communication enabled.\relax }{figure.caption.5}{}}
\@writefile{lof}{\contentsline {figure}{\numberline {5}{\ignorespaces Comparison of $m_{00}$ between measurement and propagated state, during online simulation with V-REP scene communication enabled\relax }}{15}{figure.caption.6}}
\newlabel{fig:m00_bad_comparison_online}{{5}{15}{Comparison of $m_{00}$ between measurement and propagated state, during online simulation with V-REP scene communication enabled\relax }{figure.caption.6}{}}
\@writefile{toc}{\contentsline {subsection}{\numberline {10.1}Offline simulation}{15}{subsection.10.1}}
\@writefile{lof}{\contentsline {figure}{\numberline {6}{\ignorespaces Comparison of $m_{00}$ between measurement and approximated propagated state to order $0$, during online simulation with V-REP scene communication enabled\relax }}{16}{figure.caption.7}}
\newlabel{fig:m00approx0_bad_comparison_online}{{6}{16}{Comparison of $m_{00}$ between measurement and approximated propagated state to order $0$, during online simulation with V-REP scene communication enabled\relax }{figure.caption.7}{}}
\@writefile{lof}{\contentsline {figure}{\numberline {7}{\ignorespaces Comparison of $m_{00}$ between measurement and approximated propagated state to order $1$, during online simulation with V-REP scene communication enabled\relax }}{16}{figure.caption.8}}
\newlabel{fig:m00approx1_bad_comparison_online}{{7}{16}{Comparison of $m_{00}$ between measurement and approximated propagated state to order $1$, during online simulation with V-REP scene communication enabled\relax }{figure.caption.8}{}}
\citation{bakthavatchalam2015improved}
\citation{bakthavatchalam2015improved}
\@writefile{lof}{\contentsline {figure}{\numberline {8}{\ignorespaces Comparison of $m_{00}$ between measurement and propagated state, during OFFLINE simulation after data from V-REP have been logged\relax }}{17}{figure.caption.9}}
\newlabel{fig:m00_notbad_comparison_offline}{{8}{17}{Comparison of $m_{00}$ between measurement and propagated state, during OFFLINE simulation after data from V-REP have been logged\relax }{figure.caption.9}{}}
\@writefile{lof}{\contentsline {figure}{\numberline {9}{\ignorespaces Grey-scale image of the camera with the black-coloured plane.\relax }}{17}{figure.caption.10}}
\newlabel{fig:camera_image_blackbg}{{9}{17}{Grey-scale image of the camera with the black-coloured plane.\relax }{figure.caption.10}{}}
\newlabel{fig:m00_comp_off_blackbg}{{\caption@xref {fig:m00_comp_off_blackbg}{ on input line 962}}{17}{Black background}{figure.caption.11}{}}
\newlabel{sub@fig:m00_comp_off_blackbg}{{}{17}{Black background}{figure.caption.11}{}}
\newlabel{fig:m00_err_off_blackbg}{{\caption@xref {fig:m00_err_off_blackbg}{ on input line 967}}{17}{Black background}{figure.caption.11}{}}
\newlabel{sub@fig:m00_err_off_blackbg}{{}{17}{Black background}{figure.caption.11}{}}
\@writefile{lof}{\contentsline {figure}{\numberline {10}{\ignorespaces Comparison (a) and error (b) of $m_{00}$ in case of black background (i.e., IP assumption holds).\relax }}{17}{figure.caption.11}}
\newlabel{fig:m00_comp+err}{{10}{17}{Comparison (a) and error (b) of $m_{00}$ in case of black background (i.e., IP assumption holds).\relax }{figure.caption.11}{}}
\@writefile{toc}{\contentsline {subsection}{\numberline {10.2}Black background}{17}{subsection.10.2}}
\citation{bakthavatchalam2015improved}
\citation{giordano2015learning}
\newlabel{fig:m10_comp_off_blackbg}{{\caption@xref {fig:m10_comp_off_blackbg}{ on input line 977}}{18}{Black background}{figure.caption.12}{}}
\newlabel{sub@fig:m10_comp_off_blackbg}{{}{18}{Black background}{figure.caption.12}{}}
\newlabel{fig:m10_err_off_blackbg}{{\caption@xref {fig:m10_err_off_blackbg}{ on input line 982}}{18}{Black background}{figure.caption.12}{}}
\newlabel{sub@fig:m10_err_off_blackbg}{{}{18}{Black background}{figure.caption.12}{}}
\@writefile{lof}{\contentsline {figure}{\numberline {11}{\ignorespaces Comparison (a) and error (b) of $m_{10}$ in case of black background (i.e., IP assumption holds).\relax }}{18}{figure.caption.12}}
\newlabel{fig:m10_comp+err}{{11}{18}{Comparison (a) and error (b) of $m_{10}$ in case of black background (i.e., IP assumption holds).\relax }{figure.caption.12}{}}
\newlabel{fig:m01_comp_off_blackbg}{{\caption@xref {fig:m01_comp_off_blackbg}{ on input line 992}}{18}{Black background}{figure.caption.13}{}}
\newlabel{sub@fig:m01_comp_off_blackbg}{{}{18}{Black background}{figure.caption.13}{}}
\newlabel{fig:m01_err_off_blackbg}{{\caption@xref {fig:m01_err_off_blackbg}{ on input line 997}}{18}{Black background}{figure.caption.13}{}}
\newlabel{sub@fig:m01_err_off_blackbg}{{}{18}{Black background}{figure.caption.13}{}}
\@writefile{lof}{\contentsline {figure}{\numberline {12}{\ignorespaces Comparison (a) and error (b) of $m_{01}$ in case of black background (i.e., IP assumption holds).\relax }}{18}{figure.caption.13}}
\newlabel{fig:m01_comp+err}{{12}{18}{Comparison (a) and error (b) of $m_{01}$ in case of black background (i.e., IP assumption holds).\relax }{figure.caption.13}{}}
\@writefile{toc}{\contentsline {section}{\numberline {11}Meeting with Marco C. and Paolo S. (05/06/2018)}{18}{section.11}}
\citation{giordano2015learning}
\citation{bakthavatchalam2015improved}
\@writefile{lof}{\contentsline {figure}{\numberline {13}{\ignorespaces Graphical representation of the weighting function $w\left (x,y\right ) = K\qopname  \relax o{exp}^{-a\left (x^2 + y^2\right )^2}$.\relax }}{19}{figure.caption.14}}
\newlabel{fig:chaumette_weight}{{13}{19}{Graphical representation of the weighting function $w\left (x,y\right ) = K\exp ^{-a\left (x^2 + y^2\right )^2}$.\relax }{figure.caption.14}{}}
\@writefile{toc}{\contentsline {section}{\numberline {12}System state definition with weighted sum of weighted moments}{19}{section.12}}
\newlabel{eq:photometric-moments2}{{50}{19}{System state definition with weighted sum of weighted moments}{equation.12.50}{}}
\newlabel{eq:wpm-function2}{{51}{19}{System state definition with weighted sum of weighted moments}{equation.12.51}{}}
\newlabel{eq:moments-dynamics2}{{52}{19}{System state definition with weighted sum of weighted moments}{equation.12.52}{}}
\citation{giordano2015learning}
\newlabel{eq:wpm-interaction-matrix2}{{53}{20}{System state definition with weighted sum of weighted moments}{equation.12.53}{}}
\newlabel{eq:weighted-moment-of-weighted-moments}{{54}{20}{System state definition with weighted sum of weighted moments}{equation.12.54}{}}
\newlabel{eq:w-theta}{{55}{20}{System state definition with weighted sum of weighted moments}{equation.12.55}{}}
\newlabel{eq:arranged-wwm}{{56}{20}{System state definition with weighted sum of weighted moments}{equation.12.56}{}}
\@writefile{toc}{\contentsline {section}{\numberline {13}Meeting - 12/11/2018}{20}{section.13}}
\bibstyle{plain}
\bibdata{mybib}
\bibcite{bakthavatchalam2015improved}{1}
\bibcite{chaumette2006visual}{2}
\bibcite{collewet2011photometric}{3}
\bibcite{collewet2008visual}{4}
\bibcite{giordano2015learning}{5}
\bibcite{hartley2003multiple}{6}
\bibcite{salaris2018perception}{7}
\bibcite{salaris2017online}{8}
\bibcite{spica2013framework}{9}
\@writefile{toc}{\contentsline {chapter}{Bibliography}{21}{section*.15}}
